// This file is generated automatically. All manually added changes will be removed when running the Converter.
// Map 011-1: Depleted Mana Stones Mine warps
011-1,177,178,0	warp	#011-1_177_178	0,0,009-1,119,41
