// This file is generated automatically. All manually added changes will be removed when running the Converter.
// Map 017-3: Dimond's Cove warps
017-3,27,24,0	warp	#017-3_27_24	0,0,017-3,35,68
017-3,32,45,0	warp	#017-3_32_45	0,0,017-1,92,89
017-3,40,27,0	warp	#017-3_40_27	2,0,017-3,83,28
017-3,36,68,0	warp	#017-3_36_68	0,0,017-3,28,24
017-3,67,27,0	warp	#017-3_67_27	2,0,017-3,67,72
017-3,83,29,0	warp	#017-3_83_29	2,0,017-3,40,28
017-3,67,73,0	warp	#017-3_67_73	2,0,017-3,67,28
