// This file is generated automatically. All manually added changes will be removed when running the Converter.
// Map 018-5-1: Mountain Cave warps
018-5-1,36,99,0	warp	#018-5-1_36_99	0,0,018-5,60,147
018-5-1,79,68,0	warp	#018-5-1_79_68	0,0,018-5,99,83
018-5-1,77,54,0	warp	#018-5-1_77_54	0,0,018-5,97,69
