// This file is generated automatically. All manually added changes will be removed when running the Converter.
// Map 022-1: North Icelands mobs
022-1,30,73,10,34	monster	Rudolph Slime	1086,8,0,0
022-1,29,72,10,34	monster	Noel Slime	1096,3,0,0
022-1,92,58,9,6	monster	Blue Slime	1087,8,0,0
022-1,65,53,23,14	monster	Noel Slime	1096,3,0,0
022-1,69,75,13,6	monster	Rudolph Slime	1086,8,0,0
022-1,77,104,31,15	monster	Rudolph Slime	1086,8,0,0
022-1,78,105,31,15	monster	Noel Slime	1096,3,0,0
