// Map 012-2: Hurnscald Inn
// This file is generated automatically. All manually added changes will be removed when running the Converter.
"npc/012-2/GonzoDark.txt",
"npc/012-2/Saulc.txt",
"npc/012-2/_warps.txt",
"npc/012-2/door.txt",
"npc/012-2/helena.txt",
"npc/012-2/khafar.txt",
"npc/012-2/melina.txt",
"npc/012-2/note.txt",
"npc/012-2/rakinorf.txt",
