// This file is generated automatically. All manually added changes will be removed when running the Converter.
// Map 014-3: Woodlands Central Area warps
014-3,120,121,0	warp	#014-3_120_121	0,0,015-3,172,195
014-3,131,135,0	warp	#014-3_131_135	1,0,014-2,48,25
014-3,206,92,0	warp	#014-3_206_92	0,4,012-1,23,61
014-3,155,40,0	warp	#014-3_155_40	1,0,014-5,81,228
014-3,120,67,0	warp	#014-3_120_67	0,0,015-2,49,100
014-3,55,42,0	warp	#014-3_55_42	0,0,014-3,77,40
014-3,77,39,0	warp	#014-3_77_39	0,0,014-3,55,43
014-3,29,70,0	warp	#014-3_29_70	0,3,014-4,158,68
