// This file is generated automatically. All manually added changes will be removed when running the Converter.
// Map 015-6: Terranite Cave mobs
015-6,217,45,6,1	monster	Moggun	1070,3,100000,30000
015-6,223,30,6,1	monster	Moggun	1070,3,100000,30000
015-6,239,48,6,1	monster	Moggun	1070,3,100000,30000
015-6,197,39,3,4	monster	Moggun	1070,3,100000,30000
015-6,210,35,3,4	monster	Angry Bat	1194,5,100000,30000
015-6,241,38,3,4	monster	Angry Bat	1194,5,100000,30000
015-6,237,59,3,4	monster	Angry Bat	1194,5,100000,30000
015-6,226,73,3,4	monster	Angry Bat	1194,5,100000,30000
015-6,209,94,4,2	monster	Angry Bat	1194,5,100000,30000
015-6,263,29,3,4	monster	Angry Bat	1194,5,100000,30000
015-6,274,48,3,4	monster	Angry Bat	1194,5,100000,30000
015-6,267,70,3,4	monster	Angry Bat	1194,5,100000,30000
015-6,259,79,3,4	monster	Angry Bat	1194,15,100000,30000
015-6,274,79,3,4	monster	Angry Bat	1194,5,100000,30000
015-6,268,91,12,7	monster	Moggun	1070,10,100000,30000
015-6,209,146,34,27	monster	Wicked Mushroom	1176,5,100000,30000
015-6,254,163,9,23	monster	Angry Yellow Slime	1198,10,100000,30000
015-6,167,175,8,11	monster	Angry Yellow Slime	1198,10,100000,30000
015-6,148,176,8,11	monster	Red Slime	1092,15,100000,30000
015-6,131,88,8,11	monster	Red Slime	1092,10,100000,30000
015-6,140,131,8,11	monster	Angry Yellow Slime	1198,10,100000,30000
015-6,42,128,8,4	monster	Angry Yellow Slime	1198,10,100000,30000
015-6,64,62,12,15	monster	Wicked Mushroom	1176,6,100000,30000
015-6,69,89,8,10	monster	Angry Yellow Slime	1198,10,100000,30000
015-6,34,45,8,16	monster	Terranite	1167,3,100000,30000
015-6,64,36,12,8	monster	Cave Maggot	1027,3,100000,30000
015-6,100,115,12,8	monster	Cave Maggot	1027,3,100000,30000
015-6,90,137,8,11	monster	Angry Yellow Slime	1198,10,100000,30000
015-6,59,113,7,8	monster	Cave Maggot	1027,28,100000,30000
015-6,42,176,7,6	monster	Terranite	1167,3,100000,30000
015-6,120,177,12,8	monster	Cave Maggot	1027,3,100000,30000
015-6,287,180,12,8	monster	Cave Maggot	1027,3,100000,30000
015-6,340,175,12,8	monster	Cave Maggot	1027,3,100000,30000
015-6,390,156,34,27	monster	Wicked Mushroom	1176,7,100000,30000
015-6,358,37,10,11	monster	Terranite	1167,3,100000,30000
015-6,481,110,9,12	monster	Terranite	1167,3,100000,30000
015-6,435,114,12,8	monster	Cave Maggot	1027,3,100000,30000
015-6,477,82,12,8	monster	Cave Maggot	1027,3,100000,30000
015-6,354,106,9,23	monster	Angry Yellow Slime	1198,15,100000,30000
015-6,342,139,8,11	monster	Red Slime	1092,10,100000,30000
015-6,389,81,16,7	monster	Red Slime	1092,16,100000,30000
015-6,409,35,3,4	monster	Angry Bat	1194,11,100000,30000
015-6,413,73,3,4	monster	Angry Bat	1194,11,100000,30000
015-6,395,63,3,4	monster	Angry Bat	1194,11,100000,30000
015-6,314,182,3,4	monster	Angry Bat	1194,5,100000,30000
015-6,409,121,3,4	monster	Angry Bat	1194,18,100000,30000
015-6,456,99,3,4	monster	Angry Bat	1194,11,100000,30000
015-6,133,153,4,2	monster	Angry Bat	1194,11,100000,30000
015-6,153,98,4,2	monster	Angry Bat	1194,5,100000,30000
015-6,126,65,4,2	monster	Angry Bat	1194,5,100000,30000
015-6,81,180,4,2	monster	Angry Bat	1194,5,100000,30000
015-6,61,159,4,2	monster	Angry Bat	1194,5,100000,30000
015-6,271,157,3,4	monster	Angry Bat	1194,5,100000,30000
015-6,270,182,3,4	monster	Angry Bat	1194,5,100000,30000
015-6,322,141,8,11	monster	Red Slime	1092,10,100000,30000
015-6,451,111,3,4	monster	Angry Bat	1194,5,100000,30000
015-6,422,50,5,16	monster	Wicked Mushroom	1176,5,100000,30000
015-6,380,40,7,11	monster	Wicked Mushroom	1176,5,100000,30000
015-6,124,49,4,12	monster	Terranite	1167,1,100000,30000
015-6,80,110,4,2	monster	Angry Bat	1194,5,100000,30000
015-6,42,142,10,5	monster	Cave Maggot	1027,3,100000,30000
015-6,41,159,5,10	monster	Wicked Mushroom	1176,4,100000,30000
015-6,95,180,4,2	monster	Angry Bat	1194,5,100000,30000
015-6,91,180,11,5	monster	Wicked Mushroom	1176,8,100000,30000
