// This file is generated automatically. All manually added changes will be removed when running the Converter.
// Map 015-6: Terranite Cave warps
015-6,193,58,0	warp	#015-6_193_58	0,0,015-5,353,62
015-6,363,26,0	warp	#015-6_363_26	0,0,015-6,474,187
015-6,474,188,0	warp	#015-6_474_188	0,0,015-6,363,27
