// This file is generated automatically. All manually added changes will be removed when running the Converter.
// Map 024-1: Frostia warps
024-1,75,134,0	warp	#024-1_75_134	0,0,023-1,42,32
024-1,94,70,0	script	#024-1_94_70	NPC_HIDDEN,3,0,{
	end;
OnTouch:
	slide 93,72; end;
}
024-1,32,54,0	warp	#024-1_32_54	0,0,024-2,41,29
024-1,126,28,0	warp	#024-1_126_28	0,0,024-3,35,34
024-1,154,40,0	warp	#024-1_154_40	0,0,024-4,28,28
024-1,160,40,0	warp	#024-1_160_40	0,0,024-4,39,28
024-1,155,55,0	warp	#024-1_155_55	0,0,024-5,34,28
024-1,143,40,0	warp	#024-1_143_40	0,0,024-6,34,27
024-1,160,49,0	warp	#024-1_160_49	0,0,024-7,40,28
024-1,136,28,0	warp	#024-1_136_28	0,0,024-8,71,31
024-1,134,48,0	warp	#024-1_134_48	0,0,024-9,41,37
024-1,77,59,0	warp	#024-1_77_59	0,0,024-10,24,36
024-1,83,59,0	warp	#024-1_83_59	0,0,024-10,34,36
024-1,105,34,0	warp	#024-1_105_34	0,0,024-11,24,34
024-1,76,45,0	warp	#024-1_76_45	0,0,024-12,31,34
024-1,50,54,0	warp	#024-1_50_54	0,0,024-13,30,36
024-1,64,30,0	warp	#024-1_64_30	0,0,024-15,25,38
