// This file is generated automatically. All manually added changes will be removed when running the Converter.
// Map 003-0-2: The Magic Guild Council Room warps
003-0-2,35,43,0	warp	#003-0-2_35_43	3,0,003-0-1,48,24
