// This file is generated automatically. All manually added changes will be removed when running the Converter.
// Map 015-2: Bandit Cave mobs
015-2,152,72,141,63	monster	Silk Worm	1034,9,30000,100000
015-2,263,38,15,17	monster	Bandit	1024,1,30000,30000
015-2,262,114,19,19	monster	Bandit	1024,1,30000,30000
015-2,132,119,8,10	monster	Bandit	1024,1,30000,30000
015-2,170,66,8,10	monster	Bandit	1024,1,30000,30000
015-2,67,70,8,10	monster	Bandit	1024,1,30000,30000
015-2,196,107,8,10	monster	Bandit	1024,1,30000,30000
015-2,196,29,8,10	monster	Bandit	1024,1,30000,30000
015-2,36,37,8,10	monster	Bandit	1024,1,30000,30000
015-2,112,40,22,24	monster	Bandit	1024,2,30000,60000
015-2,31,99,8,10	monster	Bandit	1024,1,30000,30000
015-2,223,250,61,32	monster	Bat	1039,5,30000,100000
015-2,270,175,13,12	monster	Bat	1039,3,30000,100000
015-2,257,77,2,63	monster	Bat	1039,6,30000,100000
015-2,192,77,2,63	monster	Bat	1039,9,30000,100000
015-2,167,110,43,6	monster	Bat	1039,9,30000,100000
015-2,75,70,52,48	monster	Bat	1039,21,30000,100000
015-2,78,195,64,48	monster	Bat	1039,9,30000,100000
015-2,168,109,18,18	monster	Snake	1122,1,30000,100000
015-2,199,76,18,18	monster	Snake	1122,2,30000,100000
015-2,88,163,14,13	monster	Snake	1122,1,30000,100000
015-2,48,113,17,9	monster	Snake	1122,2,30000,100000
015-2,177,94,10,14	monster	Angry Red Scorpion	1130,4,30000,100000
015-2,194,49,10,14	monster	Angry Red Scorpion	1130,2,30000,100000
015-2,51,115,23,12	monster	Angry Red Scorpion	1130,2,30000,100000
015-2,63,169,6,8	monster	Angry Red Scorpion	1130,2,30000,100000
015-2,100,226,14,7	monster	Snake	1122,2,30000,100000
015-2,260,44,26,8	monster	Snake	1122,3,30000,100000
015-2,272,48,10,14	monster	Angry Red Scorpion	1130,2,30000,100000
015-2,95,78,15,12	monster	Yellow Slime	1091,3,30000,100000
015-2,59,36,9,12	monster	Yellow Slime	1091,3,30000,100000
015-2,26,69,9,12	monster	Yellow Slime	1091,3,30000,100000
015-2,61,101,7,5	monster	Yellow Slime	1091,3,30000,100000
015-2,50,61,4,6	monster	Yellow Slime	1091,2,30000,100000
015-2,128,39,4,6	monster	Yellow Slime	1091,2,30000,100000
015-2,41,178,4,6	monster	Yellow Slime	1091,1,30000,100000
015-2,70,229,4,6	monster	Yellow Slime	1091,1,30000,100000
015-2,20,204,4,6	monster	Yellow Slime	1091,1,30000,100000
015-2,114,190,4,6	monster	Yellow Slime	1091,3,30000,100000
015-2,137,205,4,6	monster	Yellow Slime	1091,2,30000,100000
015-2,79,220,14,7	monster	Cave Snake	1035,3,30000,100000
015-2,115,210,14,7	monster	Cave Snake	1035,3,30000,100000
015-2,41,193,15,15	monster	Cave Snake	1035,3,30000,100000
015-2,70,143,15,15	monster	Cave Snake	1035,3,30000,100000
015-2,97,183,14,7	monster	Cave Snake	1035,3,30000,100000
015-2,172,252,4,6	monster	Cave Maggot	1027,4,30000,100000
015-2,263,236,8,2	monster	Cave Maggot	1027,3,30000,100000
015-2,143,128,140,125	monster	Small Diamond Biff	1107,8,30000,100000
015-2,93,172,6,8	monster	Angry Red Scorpion	1130,2,30000,100000
