// This file is generated automatically. All manually added changes will be removed when running the Converter.
// Map 018-2-1: Heroes' Hold - Castle warps
018-2-1,26,33,0	warp	#018-2-1_26_33	2,0,018-2,72,65
