// This file is generated automatically. All manually added changes will be removed when running the Converter.
// Map 015-1: Woodland Mines warps
015-1,100,133,0	warp	#015-1_100_133	1,0,014-1,79,58
015-1,90,49,0	warp	#015-1_90_49	0,0,015-4,50,38
015-1,177,56,0	warp	#015-1_177_56	0,0,015-4,76,19
