// This file is generated automatically. All manually added changes will be removed when running the Converter.
// Map 003-1-1: Tulimshar Sewers warps
003-1-1,143,127,0	warp	#003-1-1_143_127	0,0,003-1,115,111
003-1-1,57,99,0	warp	#003-1-1_57_99	0,0,003-1,56,84
003-1-1,29,62,0	warp	#003-1-1_29_62	0,0,004-1,49,21
003-1-1,44,143,0	warp	#003-1-1_44_143	0,0,008-0,41,23
