// This file is generated automatically. All manually added changes will be removed when running the Converter.
// Map 003-2-1: #Leave-Complaints warps
003-2-1,47,33,0	warp	#003-2-1_47_33	1,0,003-2,28,40
