// This file is generated automatically. All manually added changes will be removed when running the Converter.
// Map 011-3: Eternal Swamps - Landbridge warps
011-3,37,20,0	warp	#011-3_37_20	2,0,014-2,56,102
011-3,37,221,0	warp	#011-3_37_221	4,0,009-1,71,25
