// This file is generated automatically. All manually added changes will be removed when running the Converter.
// Map 003-1-3: Magic School's Cave mobs
003-1-3,55,58,29,22	monster	Cave Snake	1035,11,35000,150000
003-1-3,56,52,34,19	monster	Small Topaz Bif	1101,2,37000,160000
003-1-3,54,54,54,54	monster	Cave Maggot	1027,6,40000,200000
003-1-3,50,52,22,23	monster	Plushroom Field	1011,6,35000,250000
