// This file is generated automatically. All manually added changes will be removed when running the Converter.
// Map 003-1-3: Magic School's Cave warps
003-1-3,83,82,0	warp	#003-1-3_83_82	0,0,003-1,59,54
003-1-3,37,86,0	warp	#003-1-3_37_86	0,0,003-1,25,46
